{
    "page": 1,
    "total_results": 24048,
    "total_pages": 1203,
    "results": [
        {
            "vote_count": 879,
            "id": 320288,
            "video": false,
            "vote_average": 6.3,
            "title": "Dark Phoenix",
            "popularity": 246.408,
            "poster_path": "/kZv92eTc0Gg3mKxqjjDAM73z9cy.jpg",
            "original_language": "en",
            "original_title": "Dark Phoenix",
            "genre_ids": [878, 28],
            "backdrop_path": "/phxiKFDvPeQj4AbkvJLmuZEieDU.jpg",
            "adult": false,
            "overview": "The X-Men face their most formidable and powerful foe when one of their own, Jean Grey, starts to spiral out of control. During a rescue mission in outer space, Jean is nearly killed when she's hit by a mysterious cosmic force. Once she returns home, this force not only makes her infinitely more powerful, but far more unstable. The X-Men must now band together to save her soul and battle aliens that want to use Grey's new abilities to rule the galaxy.",
            "release_date": "2019-06-05"
        },
        {
            "vote_count": 255,
            "id": 479455,
            "video": false,
            "vote_average": 6.1,
            "title": "Men in Black: International",
            "popularity": 201.83,
            "poster_path": "/dPrUPFcgLfNbmDL8V69vcrTyEfb.jpg",
            "original_language": "en",
            "original_title": "Men in Black: International",
            "genre_ids": [28, 35, 878, 12],
            "backdrop_path": "/2FYzxgLNuNVwncilzUeCGbOQzP7.jpg",
            "adult": false,
            "overview": "The Men in Black have always protected the Earth from the scum of the universe. In this new adventure, they tackle their biggest, most global threat to date: a mole in the Men in Black organization.",
            "release_date": "2019-06-12"
        },
        {
            "vote_count": 5851,
            "id": 299537,
            "video": false,
            "vote_average": 7,
            "title": "Captain Marvel",
            "popularity": 177.765,
            "poster_path": "/AtsgWhDnHTq68L0lLsUrCnM7TjG.jpg",
            "original_language": "en",
            "original_title": "Captain Marvel",
            "genre_ids": [28, 12, 878],
            "backdrop_path": "/w2PMyoyLU22YvrGK3smVM9fW1jj.jpg",
            "adult": false,
            "overview": "The story follows Carol Danvers as she becomes one of the universe’s most powerful heroes when Earth is caught in the middle of a galactic war between two alien races. Set in the 1990s, Captain Marvel is an all-new adventure from a previously unseen period in the history of the Marvel Cinematic Universe.",
            "release_date": "2019-03-06"
        },
        {
            "vote_count": 1192,
            "id": 458156,
            "video": false,
            "vote_average": 7.2,
            "title": "John Wick: Chapter 3 – Parabellum",
            "popularity": 129.572,
            "poster_path": "/ziEuG1essDuWuC5lpWUaw1uXY2O.jpg",
            "original_language": "en",
            "original_title": "John Wick: Chapter 3 – Parabellum",
            "genre_ids": [80, 28, 53],
            "backdrop_path": "/vVpEOvdxVBP2aV166j5Xlvb5Cdc.jpg",
            "adult": false,
            "overview": "Super-assassin John Wick returns with a $14 million price tag on his head and an army of bounty-hunting killers on his trail. After killing a member of the shadowy international assassin’s guild, the High Table, John Wick is excommunicado, but the world’s most ruthless hit men and women await his every turn.",
            "release_date": "2019-05-15"
        },
        {
            "vote_count": 543,
            "id": 514999,
            "video": false,
            "vote_average": 6.5,
            "title": "Murder Mystery",
            "popularity": 113.438,
            "poster_path": "/bSMSO9xupd4R4vwTPqigHn2quLN.jpg",
            "original_language": "en",
            "original_title": "Murder Mystery",
            "genre_ids": [35, 80, 9648, 28],
            "backdrop_path": "/qeFO3u2IqbAeIT1Xgo6POqYbCaQ.jpg",
            "adult": false,
            "overview": "After attending a gathering on a billionaire's yacht during a European vacation, a New York cop and his wife become prime suspects when he's murdered.",
            "release_date": "2019-06-14"
        },
        {
            "vote_count": 7098,
            "id": 299534,
            "video": false,
            "vote_average": 8.4,
            "title": "Avengers: Endgame",
            "popularity": 107.373,
            "poster_path": "/or06FN3Dka5tukK1e9sl16pB3iy.jpg",
            "original_language": "en",
            "original_title": "Avengers: Endgame",
            "genre_ids": [12, 878, 28],
            "backdrop_path": "/7RyHsO4yDXtBv1zUU3mTpHeQ0d5.jpg",
            "adult": false,
            "overview": "After the devastating events of Avengers: Infinity War, the universe is in ruins due to the efforts of the Mad Titan, Thanos. With the help of remaining allies, the Avengers must assemble once more in order to undo Thanos' actions and restore order to the universe once and for all, no matter what consequences may be in store.",
            "release_date": "2019-04-24"
        },
        {
            "vote_count": 14087,
            "id": 299536,
            "video": false,
            "vote_average": 8.3,
            "title": "Avengers: Infinity War",
            "popularity": 104.105,
            "poster_path": "/7WsyChQLEftFiDOVTGkv3hFpyyt.jpg",
            "original_language": "en",
            "original_title": "Avengers: Infinity War",
            "genre_ids": [12, 28, 14],
            "backdrop_path": "/bOGkgRGdhrBYJSLpXaxhXVstddV.jpg",
            "adult": false,
            "overview": "As the Avengers and their allies have continued to protect the world from threats too large for any one hero to handle, a new danger has emerged from the cosmic shadows: Thanos. A despot of intergalactic infamy, his goal is to collect all six Infinity Stones, artifacts of unimaginable power, and use them to inflict his twisted will on all of reality. Everything the Avengers have fought for has led up to this moment - the fate of Earth and existence itself has never been more uncertain.",
            "release_date": "2018-04-25"
        },
        {
            "vote_count": 2112,
            "id": 399579,
            "video": false,
            "vote_average": 6.7,
            "title": "Alita: Battle Angel",
            "popularity": 100.437,
            "poster_path": "/xRWht48C2V8XNfzvPehyClOvDni.jpg",
            "original_language": "en",
            "original_title": "Alita: Battle Angel",
            "genre_ids": [28, 878, 53, 12],
            "backdrop_path": "/aQXTw3wIWuFMy0beXRiZ1xVKtcf.jpg",
            "adult": false,
            "overview": "When Alita awakens with no memory of who she is in a future world she does not recognize, she is taken in by Ido, a compassionate doctor who realizes that somewhere in this abandoned cyborg shell is the heart and soul of a young woman with an extraordinary past.",
            "release_date": "2019-01-31"
        },
        {
            "vote_count": 15,
            "id": 566555,
            "video": false,
            "vote_average": 4.4,
            "title": "Detective Conan: The Fist of Blue Sapphire",
            "popularity": 95.075,
            "poster_path": "/86Y6qM8zTn3PFVfCm9J98Ph7JEB.jpg",
            "original_language": "ja",
            "original_title": "名探偵コナン 紺青の拳（フィスト）",
            "genre_ids": [16, 28, 18, 9648, 35],
            "backdrop_path": "/wf6VDSi4aFCZfuD8sX8JAKLfJ5m.jpg",
            "adult": false,
            "overview": "23rd movie in the \"Detective Conan\" franchise.",
            "release_date": "2019-04-12"
        },
        {
            "vote_count": 623,
            "id": 373571,
            "video": false,
            "vote_average": 6.3,
            "title": "Godzilla: King of the Monsters",
            "popularity": 91.357,
            "poster_path": "/pU3bnutJU91u3b4IeRPQTOP8jhV.jpg",
            "original_language": "en",
            "original_title": "Godzilla: King of the Monsters",
            "genre_ids": [878, 28, 53],
            "backdrop_path": "/uovH5k4BAEPqXqxgwVrTtqH169g.jpg",
            "adult": false,
            "overview": "The new story follows the heroic efforts of the crypto-zoological agency Monarch as its members face off against a battery of god-sized monsters, including the mighty Godzilla, who collides with Mothra, Rodan, and his ultimate nemesis, the three-headed King Ghidorah. When these ancient super-species—thought to be mere myths—rise again, they all vie for supremacy, leaving humanity’s very existence hanging in the balance.",
            "release_date": "2019-05-29"
        },
        {
            "vote_count": 8,
            "id": 480042,
            "video": false,
            "vote_average": 4.6,
            "title": "Escape Plan: The Extractors",
            "popularity": 87.599,
            "poster_path": "/Au7tg0IcN9SDTEi2tlJwxB9RLYt.jpg",
            "original_language": "en",
            "original_title": "Escape Plan: The Extractors",
            "genre_ids": [28, 53],
            "backdrop_path": "/ygWKYTu7OnZKF9H5NsgjL9iURGV.jpg",
            "adult": false,
            "overview": "TBD: The daughter of a Hong Kong tech executive goes missing in what appears to be a routine ransom job. As Breslin and his crew delve deeper, they discover the culprit is the deranged son of one of their former foes, who also kidnapped Breslin's love and is holding her inside the massive prison known as Devil's Station.",
            "release_date": "2019-06-20"
        },
        {
            "vote_count": 46,
            "id": 486131,
            "video": false,
            "vote_average": 5,
            "title": "Shaft",
            "popularity": 76.808,
            "poster_path": "/kfZqwGuvEBAysAbCsa0QLKoSYR.jpg",
            "original_language": "en",
            "original_title": "Shaft",
            "genre_ids": [28, 80],
            "backdrop_path": "/2JS5guOh3hj3WgMhbMHPZDSU1HJ.jpg",
            "adult": false,
            "overview": "JJ, aka John Shaft Jr., may be a cyber security expert with a degree from MIT, but to uncover the truth behind his best friend’s untimely death, he needs an education only his dad can provide. Absent throughout JJ’s youth, the legendary locked-and-loaded John Shaft agrees to help his progeny navigate Harlem’s heroin-infested underbelly.",
            "release_date": "2019-06-14"
        },
        {
            "vote_count": 1417,
            "id": 447404,
            "video": false,
            "vote_average": 7,
            "title": "Pokémon Detective Pikachu",
            "popularity": 72.943,
            "poster_path": "/wgQ7APnFpf1TuviKHXeEe3KnsTV.jpg",
            "original_language": "en",
            "original_title": "Pokémon Detective Pikachu",
            "genre_ids": [9648, 10751, 35, 878, 28, 12],
            "backdrop_path": "/nDP33LmQwNsnPv29GQazz59HjJI.jpg",
            "adult": false,
            "overview": "In a world where people collect pocket-size monsters (Pokémon) to do battle, a boy comes across an intelligent monster who seeks to be a detective.",
            "release_date": "2019-05-03"
        },
        {
            "vote_count": 0,
            "id": 429617,
            "video": false,
            "vote_average": 0,
            "title": "Spider-Man: Far from Home",
            "popularity": 71.521,
            "poster_path": "/dzg8lHS78l5Xxpd2EM5H541Qn2s.jpg",
            "original_language": "en",
            "original_title": "Spider-Man: Far from Home",
            "genre_ids": [28, 12, 878],
            "backdrop_path": "/dihW2yTsvQlust7mSuAqJDtqW7k.jpg",
            "adult": false,
            "overview": "Peter Parker and his friends go on a summer trip to Europe. However, they will hardly be able to rest - Peter will have to agree to help Nick Fury uncover the mystery of creatures that cause natural disasters and destruction throughout the continent.",
            "release_date": "2019-06-28"
        },
        {
            "vote_count": 10173,
            "id": 245891,
            "video": false,
            "vote_average": 7.2,
            "title": "John Wick",
            "popularity": 71.127,
            "poster_path": "/b9uYMMbm87IBFOq59pppvkkkgNg.jpg",
            "original_language": "en",
            "original_title": "John Wick",
            "genre_ids": [28, 53],
            "backdrop_path": "/mFb0ygcue4ITixDkdr7wm1Tdarx.jpg",
            "adult": false,
            "overview": "Ex-hitman John Wick comes out of retirement to track down the gangsters that took everything from him.",
            "release_date": "2014-10-22"
        },
        {
            "vote_count": 4151,
            "id": 324857,
            "video": false,
            "vote_average": 8.4,
            "title": "Spider-Man: Into the Spider-Verse",
            "popularity": 68.819,
            "poster_path": "/iiZZdoQBEYBv6id8su7ImL0oCbD.jpg",
            "original_language": "en",
            "original_title": "Spider-Man: Into the Spider-Verse",
            "genre_ids": [28, 12, 16, 878, 35],
            "backdrop_path": "/uUiId6cG32JSRI6RyBQSvQtLjz2.jpg",
            "adult": false,
            "overview": "Miles Morales is juggling his life between being a high school student and being a spider-man. When Wilson \"Kingpin\" Fisk uses a super collider, others from across the Spider-Verse are transported to this dimension.",
            "release_date": "2018-12-06"
        },
        {
            "vote_count": 6308,
            "id": 335983,
            "video": false,
            "vote_average": 6.6,
            "title": "Venom",
            "popularity": 68.653,
            "poster_path": "/2uNW4WbgBXL25BAbXGLnLqX71Sw.jpg",
            "original_language": "en",
            "original_title": "Venom",
            "genre_ids": [878, 28],
            "backdrop_path": "/VuukZLgaCrho2Ar8Scl9HtV3yD.jpg",
            "adult": false,
            "overview": "Investigative journalist Eddie Brock attempts a comeback following a scandal, but accidentally becomes the host of Venom, a violent, super powerful alien symbiote. Soon, he must rely on his newfound powers to protect the world from a shadowy organization looking for a symbiote of their own.",
            "release_date": "2018-09-28"
        },
        {
            "vote_count": 1912,
            "id": 287947,
            "video": false,
            "vote_average": 7.1,
            "title": "Shazam!",
            "popularity": 65.257,
            "poster_path": "/xnopI5Xtky18MPhK40cZAGAOVeV.jpg",
            "original_language": "en",
            "original_title": "Shazam!",
            "genre_ids": [28, 12, 35, 14],
            "backdrop_path": "/bi4jh0Kt0uuZGsGJoUUfqmbrjQg.jpg",
            "adult": false,
            "overview": "A boy is given the ability to become an adult superhero in times of need with a single magic word.",
            "release_date": "2019-03-23"
        },
        {
            "vote_count": 1218,
            "id": 375588,
            "video": false,
            "vote_average": 5.8,
            "title": "Robin Hood",
            "popularity": 57.149,
            "poster_path": "/AiRfixFcfTkNbn2A73qVJPlpkUo.jpg",
            "original_language": "en",
            "original_title": "Robin Hood",
            "genre_ids": [12, 28, 53],
            "backdrop_path": "/axjFiijtxdfK3CD9dMwrdgLwblD.jpg",
            "adult": false,
            "overview": "A war-hardened Crusader and his Moorish commander mount an audacious revolt against the corrupt English crown.",
            "release_date": "2018-11-20"
        },
        {
            "vote_count": 54,
            "id": 390634,
            "video": false,
            "vote_average": 5.3,
            "title": "Fate/Stay Night: Heaven’s Feel II. Lost Butterfly",
            "popularity": 55.159,
            "poster_path": "/4tS0iyKQBDFqVpVcH21MSJwXZdq.jpg",
            "original_language": "ja",
            "original_title": "劇場版 Fate／stay night [Heaven's Feel] II. lost butterfly",
            "genre_ids": [16, 28, 14, 12],
            "backdrop_path": "/2zKusjJZd8b2Cdk2C5K9dGFNWiJ.jpg",
            "adult": false,
            "overview": "Theatrical-release adaptation of the visual novel \"Fate/stay night\", following the third and final route. (Part 2 of a trilogy.)",
            "release_date": "2019-01-12"
        }
    ]
}
